…
#### 3\. How is life expectancy changing over time on different continents?

``` r
df2 <- gapminder %>% 
  group_by(continent, year) %>% 
  summarise(life = mean(lifeExp))
df2
```

    ## # A tibble: 60 x 3
    ## # Groups:   continent [?]
    ##    continent  year  life
    ##    <fct>     <int> <dbl>
    ##  1 Africa     1952  39.1
    ##  2 Africa     1957  41.3
    ##  3 Africa     1962  43.3
    ##  4 Africa     1967  45.3
    ##  5 Africa     1972  47.5
    ##  6 Africa     1977  49.6
    ##  7 Africa     1982  51.6
    ##  8 Africa     1987  53.3
    ##  9 Africa     1992  53.6
    ## 10 Africa     1997  53.6
    ## # ... with 50 more rows
…
#### 4\. Report the absolute and/or relative abundance of countries with low life expectancy over time by continent: Compute some measure of worldwide life expectancy – you decide – a mean or median or some other quantile or perhaps your current age. Then determine how many countries on each continent have a life expectancy less than this benchmark, for each year.

Set the benchmark to 50 years old

``` r
df3 <- gapminder %>% 
  filter(lifeExp < 50) %>% 
  group_by(year, continent) %>%
  summarise(lowLife = n())
df3
```

    ## # A tibble: 32 x 3
    ## # Groups:   year [?]
    ##     year continent lowLife
    ##    <int> <fct>       <int>
    ##  1  1952 Africa         50
    ##  2  1952 Americas        9
    ##  3  1952 Asia           22
    ##  4  1952 Europe          1
    ##  5  1957 Africa         49
    ##  6  1957 Americas        8
    ##  7  1957 Asia           18
    ##  8  1957 Europe          1
    ##  9  1962 Africa         47
    ## 10  1962 Americas        6
    ## # ... with 22 more rows

We can see there is no Oceania in the table above, check if the Oceania
lifeExp is all above 50:

``` r
gapminder %>% 
  filter(continent == "Oceania")
```

    ## # A tibble: 24 x 6
    ##    country   continent  year lifeExp      pop gdpPercap
    ##    <fct>     <fct>     <int>   <dbl>    <int>     <dbl>
    ##  1 Australia Oceania    1952    69.1  8691212    10040.
    ##  2 Australia Oceania    1957    70.3  9712569    10950.
    ##  3 Australia Oceania    1962    70.9 10794968    12217.
    ##  4 Australia Oceania    1967    71.1 11872264    14526.
    ##  5 Australia Oceania    1972    71.9 13177000    16789.
    ##  6 Australia Oceania    1977    73.5 14074100    18334.
    ##  7 Australia Oceania    1982    74.7 15184200    19477.
    ##  8 Australia Oceania    1987    76.3 16257249    21889.
    ##  9 Australia Oceania    1992    77.6 17481977    23425.
    ## 10 Australia Oceania    1997    78.8 18565243    26998.
    ## # ... with 14 more rows
…
